{
  "results": [
    {
      "popularity": 256.12,
      "vote_count": 51,
      "video": false,
      "poster_path": "qdfARIhgpgZOBh3vfNhWS4hmSo3.jpg",
      "id": 330457,
      "adult": false,
      "backdrop_path": "/xJWPZIYOEFIjZpBL7SVBGnzRYXp.jpg",
      "original_language": "en",
      "original_title": "Frozen II",
      "genre_ids": [
        12,
        16,
        35,
        10402,
        10751
      ],
      "title": "Frozen II",
      "vote_average": 5.6,
      "overview": "Elsa, Anna, Kristoff and Olaf are going far in the forest to know the truth about an ancient mystery of their kingdom.",
      "release_date": "2019-11-20"
    },
    {
      "popularity": 162.457,
      "vote_count": 586,
      "video": false,
      "poster_path": "/fapXd3v9qTcNBTm39ZC4KUVQDNf.jpg",
      "id": 423204,
      "adult": false,
      "backdrop_path": "/k2WyDw2NTUIWnuEs5gT7wgrCQg6.jpg",
      "original_language": "en",
      "original_title": "Angel Has Fallen",
      "genre_ids": [
        28
      ],
      "title": "Angel Has Fallen",
      "vote_average": 5.8,
      "overview": "After the events in the previous film, Secret Service agent Mike Banning finds himself framed for an assassination attempt on the President. Pursued by his own agency and the FBI, Banning races to clear his name and uncover the real terrorist threat which has set its sights on Air Force One.",
      "release_date": "2019-08-21"
    },
    {
      "popularity": 127.644,
      "vote_count": 74,
      "video": false,
      "poster_path": "/36YiDLw3IWkQyhfJnCjG2GCNgg9.jpg",
      "id": 458897,
      "adult": false,
      "backdrop_path": "/P7QwQE8HJaB5bIIACyRdXVV7gO.jpg",
      "original_language": "en",
      "original_title": "Charlie's Angels",
      "genre_ids": [
        28,
        12,
        35
      ],
      "title": "Charlie's Angels",
      "vote_average": 6.9,
      "overview": "When a systems engineer blows the whistle on a dangerous technology, Charlie's Angels from across the globe are called into action, putting their lives on the line to protect society.",
      "release_date": "2019-11-14"
    },
    {
      "popularity": 119.887,
      "vote_count": 47,
      "video": false,
      "poster_path": "/MBiKqTsouYqAACLYNDadsjhhC0.jpg",
      "id": 486589,
      "adult": false,
      "backdrop_path": "/bga3i5jcejBekr2FCGJga1fYCh.jpg",
      "original_language": "en",
      "original_title": "Red Shoes and the Seven Dwarfs",
      "genre_ids": [
        16,
        10749
      ],
      "title": "Red Shoes and the Seven Dwarfs",
      "vote_average": 6,
      "overview": "Princes who have been turned into Dwarfs seek the red shoes of a lady in order to break the spell, although it will not be easy.",
      "release_date": "2019-07-25"
    },
    {
      "popularity": 100.559,
      "vote_count": 232,
      "video": false,
      "poster_path": "/6ApDtO7xaWAfPqfi2IARXIzj8QS.jpg",
      "id": 359724,
      "adult": false,
      "backdrop_path": "/n3UanIvmnBlH531pykuzNs4LbH6.jpg",
      "original_language": "en",
      "original_title": "Ford v Ferrari",
      "genre_ids": [
        28,
        18,
        36
      ],
      "title": "Ford v Ferrari",
      "vote_average": 8.1,
      "overview": "American car designer Carroll Shelby and the British-born driver Ken Miles work together to battle corporate interference, the laws of physics, and their own personal demons to build a revolutionary race car for Ford Motor Company and take on the dominating race cars of Enzo Ferrari at the 24 Hours of Le Mans in France in 1966.",
      "release_date": "2019-10-10"
    },
    {
      "popularity": 57.394,
      "vote_count": 1371,
      "video": false,
      "poster_path": "/7IiTTgloJzvGI1TAYymCfbfl3vT.jpg",
      "id": 496243,
      "adult": false,
      "backdrop_path": "/TU9NIjwzjoKPwQHoHshkFcQUCG.jpg",
      "original_language": "ko",
      "original_title": "기생충",
      "genre_ids": [
        35,
        18,
        53
      ],
      "title": "Parasite",
      "vote_average": 8.5,
      "overview": "All unemployed, Ki-taek's family takes peculiar interest in the wealthy and glamorous Parks for their livelihood until they get entangled in an unexpected incident.",
      "release_date": "2019-05-30"
    },
    {
      "popularity": 50.619,
      "vote_count": 95,
      "video": false,
      "poster_path": "/xL1yNzwGSXfassYpt13hXADpz6R.jpg",
      "id": 522162,
      "adult": false,
      "backdrop_path": "/1ZSjrBUHP2jm1QlQEyLGufL289q.jpg",
      "original_language": "en",
      "original_title": "Midway",
      "genre_ids": [
        28,
        18,
        36,
        10752
      ],
      "title": "Midway",
      "vote_average": 6.5,
      "overview": "The story of the soldiers and aviators who helped turn the tide of the Second World War during the iconic Battle of Midway in June 1942.",
      "release_date": "2019-11-06"
    },
    {
      "popularity": 44.442,
      "vote_count": 441,
      "video": false,
      "poster_path": "/zBhv8rsLOfpFW2M5b6wW78Uoojs.jpg",
      "id": 540901,
      "adult": false,
      "backdrop_path": "/jTab4cf4X1dJJVS4F8UOGuesvPd.jpg",
      "original_l: anguage": "en",
      "original_title": "Hustlers",
      "genre_ids": [
        35,
        80,
        18
      ],
      "title": "Hustlers",
      "vote_average": 6.2,
      "overview": "A crew of savvy former strip club employees band together to turn the tables on their Wall Street clients.",
      "release_date": "2019-09-12"
    },
    {
      "popularity": 38.014,
      "vote_count": 820,
      "video": false,
      "poster_path": "/9kOtMOUa5HrOiIG2Z9Anv7M8AbY.jpg",
      "id": 511987,
      "adult": false,
      "backdrop_path": "/lm4xH0YwFbVvTgdtau1thNK5S6J.jpg",
      "original_language": "en",
      "original_title": "Crawl",
      "genre_ids": [
        28,
        18,
        27,
        53
      ],
      "title": "Crawl",
      "vote_average": 6.1,
      "overview": "When a huge hurricane hits her hometown in Florida, Haley ignores evacuation orders to look for her father. After finding him badly wounded, both are trapped by the flood. With virtually no time to escape the storm, they discover that rising water levels are the least of their problems.",
      "release_date": "2019-07-11"
    },
    {
      "popularity": 31.416,
      "vote_count": 210,
      "video": false,
      "poster_path": "/uaXNjRkDdjfxfVuKHo25wkA6CiA.jpg",
      "id": 481084,
      "adult": false,
      "backdrop_path": "/ur4NTeFGZmQ6Hz5uEkAMgPI3WRg.jpg",
      "original_language": "en",
      "original_title": "The Addams Family",
      "genre_ids": [
        16,
        35,
        14,
        10751
      ],
      "title": "The Addams Family",
      "vote_average": 6.1,
      "overview": "The Addams family's lives begin to unravel when they face-off against a treacherous, greedy crafty reality-TV host while also preparing for their extended family to arrive for a major celebration.",
      "release_date": "2019-10-10"
    },
    {
      "popularity": 38.436,
      "vote_count": 0,
      "video": false,
      "poster_path": "/db32LaOibwEliAmSL2jjDF6oDdj.jpg",
      "id": 181812,
      "adult": false,
      "backdrop_path": "/jOzrELAzFxtMx2I4uDGHOotdfsS.jpg",
      "original_language": "en",
      "original_title": "Star Wars: The Rise of Skywalker",
      "genre_ids": [
        28,
        12,
        878
      ],
      "title": "Star Wars: The Rise of Skywalker",
      "vote_average": 0,
      "overview": "The next installment in the franchise and the conclusion of the “Star Wars“ sequel trilogy as well as the “Skywalker Saga.“",
      "release_date": "2019-12-18"
    },
    {
      "popularity": 34.306,
      "vote_count": 41,
      "video": false,
      "poster_path": "/mDeES2L2lhW8rJSyAKZMuKqZM7e.jpg",
      "id": 549053,
      "adult": false,
      "backdrop_path": "/eZ9wYTk9Gy2zYEv8rhRG3IoPuXG.jpg",
      "original_language": "en",
      "original_title": "Last Christmas",
      "genre_ids": [
        35,
        18,
        10749
      ],
      "title": "Last Christmas",
      "vote_average": 6.7,
      "overview": "Kate is a young woman subscribed to bad decisions. Her last date with disaster? That of having accepted to work as Santa's elf for a department store. However, she meets Tom there. Her life takes a new turn. For Kate, it seems too good to be true.",
      "release_date": "2019-11-07"
    },
    {
      "popularity": 29.155,
      "vote_count": 621,
      "video": false,
      "poster_path": "/q5298SICFzqMcKtQoBktk8p6FH.jpg",
      "id": 417384,
      "adult": false,
      "backdrop_path": "/spCU6e6opWCmA3Q0SdKhsMqo5OI.jpg",
      "original_language": "en",
      "original_title": "Scary Stories to Tell in the Dark",
      "genre_ids": [
        27,
        53
      ],
      "title": "Scary Stories to Tell in the Dark",
      "vote_average": 6.3,
      "overview": "Mill Valley, Pennsylvania, Halloween night, 1968. After playing a joke on a school bully, Sarah and her friends decide to sneak into a supposedly haunted house that once belonged to the powerful Bellows family, unleashing dark forces that they will be unable to control.",
      "release_date": "2019-08-08"
    },
    {
      "popularity": 25.067,
      "vote_count": 67,
      "video": false,
      "poster_path": "/fjmMu9fpqMMF17mCyLhNfkagKB0.jpg",
      "id": 578189,
      "adult": false,
      "backdrop_path": "/zBAoNL50oFRCAJvEEQEKD8M48pV.jpg",
      "original_language": "en",
      "original_title": "Black and Blue",
      "genre_ids": [
        28,
        80,
        18
      ],
      "title": "Black and Blue",
      "vote_average": 5.3,
      "overview": "Exposure follows a rookie Detroit African-American female cop who stumbles upon corrupt officers who are murdering a drug dealer, an incident captured by her body cam. They pursue her through the night in an attempt to destroy the footage, but to make matters worse, they've tipped off a criminal gang that she's responsible for the dealer's death.",
      "release_date": "2019-10-25"
    },
    {
      "popularity": 23.83,
      "vote_count": 4,
      "video": false,
      "poster_path": "/8lSuziVF8TChwOczftjbxhpuu09.jpg",
      "id": 535292,
      "adult": false,
      "backdrop_path": "/blUCzzkFNWrur18J0BvIYBdbquv.jpg",
      "original_language": "en",
      "original_title": "21 Bridges",
      "genre_ids": [
        28,
        80,
        18,
        53
      ],
      "title": "21 Bridges",
      "vote_average": 5,
      "overview": "A disgraced NYPD detective after being thrust into a citywide manhunt for a cop killer, is given a shot at redemption.",
      "release_date": "2019-10-24"
    },
    {
      "popularity": 23.538,
      "vote_count": 0,
      "video": false,
      "poster_path": "/9Vp8MKqrwRAtvACF7PBwbvdG4dq.jpg",
      "id": 512200,
      "adult": false,
      "backdrop_path": "/oLma4sWjqlXVr0E3jpaXQCytuG9.jpg",
      "original_language": "en",
      "original_title": "Jumanji: The Next Level",
      "genre_ids": [
        28,
        12,
        35,
        14
      ],
      "title": "Jumanji: The Next Level",
      "vote_average": 0,
      "overview": "Spencer returns to the world of Jumanji, prompting his friends, his grandfather and his grandfather’s friend to enter a different and more dangerous version to save him.",
      "release_date": "2019-12-04"
    },
    {
      "popularity": 15.218,
      "vote_count": 166,
      "video": false,
      "poster_path": "/z6vDqTz4fQb60QRcMLNbeJ1IMVq.jpg",
      "id": 418879,
      "adult": false,
      "backdrop_path": "/uvIs2CYJ39ABFQKZ9UVbXE5Vmww.jpg",
      "original_language": "en",
      "original_title": "The Current War",
      "genre_ids": [
        18,
        36
      ],
      "title": "The Current War",
      "vote_average": 6.7,
      "overview": "Electricity titans Thomas Edison and George Westinghouse compete to create a sustainable system and market it to the American people",
      "release_date": "2019-07-26"
    },
    {
      "popularity": 31.188,
      "vote_count": 18,
      "video": false,
      "poster_path": "/casC9Go5og9fezINXkr2UgGVvV1.jpg",
      "id": 487616,
      "adult": false,
      "backdrop_path": "/r3LHZUzgQg0SvaaaDcubsIgTtK9.jpg",
      "original_language": "fr",
      "original_title": "Curiosa",
      "genre_ids": [
        18,
        36
      ],
      "title": "Curiosa",
      "vote_average": 6.3,
      "overview": "A passionate love story set against a backdrop of sexual freedom, loosely based on the relationship between 19th century authors Pierre Louÿs and Marie de Régnier",
      "release_date": "2019-04-03"
    },
    {
      "popularity": 23.391,
      "vote_count": 627,
      "video": false,
      "poster_path": "/8bxIzp9w9l9ZzGVwNaIKOaem05A.jpg",
      "id": 484468,
      "adult": false,
      "backdrop_path": "/vadfaj3hqzgDFTSdWUMp5onELPK.jpg",
      "original_language": "fr",
      "original_title": "Le chant du loup",
      "genre_ids": [
        28,
        53
      ],
      "title": "The Wolf's Call",
      "vote_average": 7.8,
      "overview": "With nuclear war looming, a military expert in underwater acoustics strives to prove things aren't as they seem—or sound—using only his ears.",
      "release_date": "2019-02-20"
    },
    {
      "popularity": 21.779,
      "vote_count": 84,
      "video": false,
      "poster_path": "/mi5VN4ww0JZgRFJIaPxxTGKjUg7.jpg",
      "id": 522924,
      "adult": false,
      "backdrop_path": "/6esNUoXh4xQvucB7o7e3TCfjI65.jpg",
      "original_language": "en",
      "original_title": "The Art of Racing in the Rain",
      "genre_ids": [
        35,
        18,
        10749
      ],
      "title": "The Art of Racing in the Rain",
      "vote_average": 7.9,
      "overview": "Enzo, a family dog with a near-human soul and a philosopher's mind, evaluates his life through the lessons learned by his human owner, the race-car driver Denny Swift.",
      "release_date": "2019-08-08"
    }
  ],
  "page": 1,
  "total_results": 331,
  "dates": {
    "maximum": "2019-12-18",
    "minimum": "2019-11-27"
  },
  "total_pages": 17
}